<svg width="40" height="40" viewBox="0 0 40 40" fill="none" xmlns="http://www.w3.org/2000/svg">
<path d="M30 21.8647H22V29.6799H18V21.8647H10V17.9571H18V10.1419H22V17.9571H30M20 0.372925C17.3736 0.372925 14.7728 0.878289 12.3463 1.86016C9.91982 2.84204 7.71504 4.28119 5.85786 6.09546C2.10714 9.75954 0 14.7291 0 19.9109C0 25.0927 2.10714 30.0622 5.85786 33.7263C7.71504 35.5406 9.91982 36.9797 12.3463 37.9616C14.7728 38.9435 17.3736 39.4488 20 39.4488C25.3043 39.4488 30.3914 37.3904 34.1421 33.7263C37.8929 30.0622 40 25.0927 40 19.9109C40 17.3451 39.4827 14.8045 38.4776 12.434C37.4725 10.0636 35.9993 7.90973 34.1421 6.09546C32.285 4.28119 30.0802 2.84204 27.6537 1.86016C25.2272 0.878289 22.6264 0.372925 20 0.372925V0.372925Z" fill="#AC2F31"/>
</svg>
